lab05_as/simulation/qsim/lab05_as.msim.vcd
$comment
	File created using the following command:
		vcd file lab05_as.msim.vcd -direction
$end
$date
	Wed Oct  9 13:06:05 2024
$end
$version
	ModelSim Version 10.3d
$end
$timescale
	1ps
$end

$scope module game_vlg_vec_tst $end
$var reg 1 ! clk $end
$var reg 1 " e $end
$var reg 1 # n $end
$var reg 1 $ reset $end
$var reg 1 % s $end
$var reg 1 & w $end
$var wire 1 ' d $end
$var wire 1 ( s0 $end
$var wire 1 ) s1 $end
$var wire 1 * s2 $end
$var wire 1 + s3 $end
$var wire 1 , s4 $end
$var wire 1 - s5 $end
$var wire 1 . s6 $end
$var wire 1 / sw $end
$var wire 1 0 v $end
$var wire 1 1 win $end
$var wire 1 2 sampler $end

$scope module i1 $end
$var wire 1 3 gnd $end
$var wire 1 4 vcc $end
$var wire 1 5 unknown $end
$var tri1 1 6 devclrn $end
$var tri1 1 7 devpor $end
$var tri1 1 8 devoe $end
$var wire 1 9 s6~output_o $end
$var wire 1 : win~output_o $end
$var wire 1 ; s5~output_o $end
$var wire 1 < d~output_o $end
$var wire 1 = s4~output_o $end
$var wire 1 > s3~output_o $end
$var wire 1 ? sw~output_o $end
$var wire 1 @ s2~output_o $end
$var wire 1 A s1~output_o $end
$var wire 1 B s0~output_o $end
$var wire 1 C v~output_o $end
$var wire 1 D clk~input_o $end
$var wire 1 E w~input_o $end
$var wire 1 F reset~input_o $end
$var wire 1 G e~input_o $end
$var wire 1 H n~input_o $end
$var wire 1 I s~input_o $end
$var wire 1 J room_1|next_s3~0_combout $end
$var wire 1 K room_1|next_s3~1_combout $end
$var wire 1 L room_1|ff3|q~q $end
$var wire 1 M room_1|next_s4~0_combout $end
$var wire 1 N room_1|next_s4~1_combout $end
$var wire 1 O room_1|next_s4~2_combout $end
$var wire 1 P room_1|ff4|q~q $end
$var wire 1 Q room_1|next_s5~1_combout $end
$var wire 1 R room_1|next_s5~0_combout $end
$var wire 1 S room_1|next_s5~2_combout $end
$var wire 1 T room_1|ff5|q~q $end
$var wire 1 U room_1|next_s6~0_combout $end
$var wire 1 V room_1|next_s6~combout $end
$var wire 1 W room_1|ff6|q~q $end
$var wire 1 X sword_1|next_s1~0_combout $end
$var wire 1 Y sword_1|ff1|q~q $end
$var wire 1 Z room_1|next_s2~0_combout $end
$var wire 1 [ room_1|ff2|q~q $end
$var wire 1 \ room_1|next_s1~0_combout $end
$var wire 1 ] room_1|ff1|q~q $end
$var wire 1 ^ room_1|next_s0~0_combout $end
$var wire 1 _ room_1|ff0|q~q $end
$upscope $end
$upscope $end
$enddefinitions $end
#0
$dumpvars
0!
1"
1#
1$
1%
1&
0'
0(
0)
0*
0+
0,
0-
0.
0/
00
01
x2
03
14
x5
16
17
18
09
0:
0;
0<
0=
0>
0?
0@
0A
0B
0C
0D
1E
1F
1G
1H
1I
0J
0K
0L
0M
0N
0O
0P
0Q
0R
0S
0T
0U
1V
0W
0X
0Y
0Z
0[
0\
0]
0^
0_
$end
#10000
1!
0#
0%
0H
0I
02
1D
1W
19
1Q
1.
#20000
0!
12
0D
#30000
1#
1%
1!
1H
1I
02
1D
#40000
0!
12
0D
#50000
0"
0&
0$
1!
0G
0E
0F
02
1D
1U
0Q
0V
1S
1V
0S
#60000
0!
12
0D
#70000
0#
0%
1!
0H
0I
02
1D
#80000
0!
12
0D
#90000
1!
02
1D
#100000
0!
12
0D
#110000
1!
02
1D
#120000
0!
12
0D
#130000
1!
02
1D
#140000
0!
12
0D
#150000
1!
02
1D
#160000
0!
12
0D
#170000
1!
02
1D
#180000
0!
12
0D
#190000
1!
02
1D
#200000
0!
12
0D
#210000
1!
02
1D
#220000
0!
12
0D
#230000
1!
02
1D
#240000
0!
12
0D
#250000
1!
02
1D
#260000
0!
12
0D
#270000
1!
02
1D
#280000
0!
12
0D
#290000
1!
02
1D
#300000
0!
12
0D
#310000
1!
02
1D
#320000
0!
12
0D
#330000
1!
02
1D
#340000
0!
12
0D
#350000
1!
02
1D
#360000
0!
12
0D
#370000
1!
02
1D
#380000
0!
12
0D
#390000
1!
02
1D
#400000
0!
12
0D
#410000
1!
02
1D
#420000
0!
12
0D
#430000
1!
02
1D
#440000
0!
12
0D
#450000
1!
02
1D
#460000
0!
12
0D
#470000
1!
02
1D
#480000
0!
12
0D
#490000
1!
02
1D
#500000
0!
12
0D
#510000
1!
02
1D
#520000
0!
12
0D
#530000
1!
02
1D
#540000
0!
12
0D
#550000
1!
02
1D
#560000
0!
12
0D
#570000
1!
02
1D
#580000
0!
12
0D
#590000
1!
02
1D
#600000
0!
12
0D
#610000
1!
02
1D
#620000
0!
12
0D
#630000
1!
02
1D
#640000
0!
12
0D
#650000
1!
02
1D
#660000
0!
12
0D
#670000
1!
02
1D
#680000
0!
12
0D
#690000
1!
02
1D
#700000
0!
12
0D
#710000
1!
02
1D
#720000
0!
12
0D
#730000
1!
02
1D
#740000
0!
12
0D
#750000
1!
02
1D
#760000
0!
12
0D
#770000
1!
02
1D
#780000
0!
12
0D
#790000
1!
02
1D
#800000
0!
12
0D
#810000
1!
02
1D
#820000
0!
12
0D
#830000
1!
02
1D
#840000
0!
12
0D
#850000
1!
02
1D
#860000
0!
12
0D
#870000
1!
02
1D
#880000
0!
12
0D
#890000
1!
02
1D
#900000
0!
12
0D
#910000
1!
02
1D
#920000
0!
12
0D
#930000
1!
02
1D
#940000
0!
12
0D
#950000
1!
02
1D
#960000
0!
12
0D
#970000
1!
02
1D
#980000
0!
12
0D
#990000
1!
02
1D
