lab_04as/simulation/qsim/lab04_as.msim.vcd
$comment
	File created using the following command:
		vcd file lab04_as.msim.vcd -direction
$end
$date
	Wed Oct  2 12:41:10 2024
$end
$version
	ModelSim Version 10.3d
$end
$timescale
	1ps
$end

$scope module Game_vlg_vec_tst $end
$var reg 1 ! clk $end
$var reg 1 " e $end
$var reg 1 # n $end
$var reg 1 $ reset $end
$var reg 1 % s $end
$var reg 1 & w $end
$var wire 1 ' d $end
$var wire 1 ( s0 $end
$var wire 1 ) s1 $end
$var wire 1 * s2 $end
$var wire 1 + s3 $end
$var wire 1 , s4 $end
$var wire 1 - s5 $end
$var wire 1 . s6 $end
$var wire 1 / sw $end
$var wire 1 0 v $end
$var wire 1 1 win $end
$var wire 1 2 sampler $end

$scope module i1 $end
$var wire 1 3 gnd $end
$var wire 1 4 vcc $end
$var wire 1 5 unknown $end
$var tri1 1 6 devclrn $end
$var tri1 1 7 devpor $end
$var tri1 1 8 devoe $end
$var wire 1 9 v~output_o $end
$var wire 1 : sw~output_o $end
$var wire 1 ; s6~output_o $end
$var wire 1 < s5~output_o $end
$var wire 1 = s4~output_o $end
$var wire 1 > s3~output_o $end
$var wire 1 ? s2~output_o $end
$var wire 1 @ s1~output_o $end
$var wire 1 A win~output_o $end
$var wire 1 B s0~output_o $end
$var wire 1 C d~output_o $end
$var wire 1 D clk~input_o $end
$var wire 1 E clk~inputclkctrl_outclk $end
$var wire 1 F reset~input_o $end
$var wire 1 G w~input_o $end
$var wire 1 H e~input_o $end
$var wire 1 I s~input_o $end
$var wire 1 J inst|inst2~combout $end
$var wire 1 K inst|s_6~q $end
$var wire 1 L n~input_o $end
$var wire 1 M inst|inst1~0_combout $end
$var wire 1 N inst|inst1~1_combout $end
$var wire 1 O inst|s_5~q $end
$var wire 1 P inst|inst10~0_combout $end
$var wire 1 Q inst|inst10~1_combout $end
$var wire 1 R inst|s_4~q $end
$var wire 1 S inst|inst11~combout $end
$var wire 1 T inst|s_3~q $end
$var wire 1 U inst2|inst10~0_combout $end
$var wire 1 V inst2|S1~q $end
$var wire 1 W inst|inst13~combout $end
$var wire 1 X inst|s_2~q $end
$var wire 1 Y inst|inst15~combout $end
$var wire 1 Z inst|s_1~q $end
$var wire 1 [ inst|inst17~combout $end
$var wire 1 \ inst|s_0~q $end
$upscope $end
$upscope $end
$enddefinitions $end
#0
$dumpvars
0!
0"
0#
0$
0%
0&
0'
0(
0)
0*
0+
0,
0-
0.
0/
00
01
x2
03
14
x5
16
17
18
09
0:
0;
0<
0=
0>
0?
0@
0A
0B
0C
0D
0E
0F
0G
0H
0I
0J
0K
0L
0M
0N
0O
0P
0Q
0R
0S
0T
0U
0V
0W
0X
0Y
0Z
0[
0\
$end
#20000
1$
1F
02
1J
#62500
1!
1D
12
1E
1K
1;
1.
#100000
0$
0F
02
0J
#125000
0!
0D
12
0E
#160000
1"
1H
02
1N
#187500
1!
1D
12
1E
1O
0K
0;
1<
0.
1-
0N
#240000
0"
0H
02
#250000
0!
0D
12
0E
#280000
1%
1I
02
1P
1Q
#312500
1!
1D
12
1E
1R
0O
0<
1=
0P
0-
1,
0Q
#375000
0!
0D
02
0E
#380000
0%
0I
12
#420000
1"
1H
02
1W
#437500
1!
1D
12
1E
1X
0R
0=
1?
0,
1*
1[
0W
#480000
0"
0H
02
#500000
0!
0D
12
0E
#562500
1!
1D
02
1E
1\
0X
0?
1B
1C
0*
1(
1'
0[
#625000
0!
0D
12
0E
#687500
1!
1D
02
1E
0\
0B
0C
0(
0'
#750000
0!
0D
12
0E
#812500
1!
1D
02
1E
#875000
0!
0D
12
0E
#937500
1!
1D
02
1E
